Library/Bee/artifacts/movedfrom/Unity.2D.Tilemap.Editor.ref.dll_16855349101649264413.movedfrom
Library/Bee/artifacts/movedfrom/Unity.2D.Tilemap.Extras.ref.dll_15968746112497892355.movedfrom
Library/Bee/artifacts/movedfrom/UnityEditor.TestRunner.ref.dll_16004969834792811495.movedfrom
Library/Bee/artifacts/movedfrom/UnityEditor.UI.ref.dll_13622993002070669097.movedfrom
Library/Bee/artifacts/movedfrom/UnityEngine.TestRunner.ref.dll_12266501306040867282.movedfrom
Library/Bee/artifacts/movedfrom/UnityEngine.UI.ref.dll_8751741266572615572.movedfrom
Library/Bee/artifacts/movedfrom/UnityEditor.WebGL.Extensions.dll_16809850822945446819.movedfrom
Library/Bee/artifacts/movedfrom/UnityEditor.Graphs.dll_6989246186359568573.movedfrom
Library/Bee/artifacts/movedfrom/UnityEditor.CoreModule.dll_17540501086356896139.movedfrom
Library/Bee/artifacts/movedfrom/UnityEditor.DeviceSimulatorModule.dll_3487894521401980710.movedfrom
Library/Bee/artifacts/movedfrom/UnityEditor.dll_11833338377908541978.movedfrom
Library/Bee/artifacts/movedfrom/UnityEditor.GraphViewModule.dll_11229727111359356235.movedfrom
Library/Bee/artifacts/movedfrom/UnityEditor.PackageManagerUIModule.dll_14929725032442287911.movedfrom
Library/Bee/artifacts/movedfrom/UnityEditor.QuickSearchModule.dll_17386254290652638285.movedfrom
Library/Bee/artifacts/movedfrom/UnityEditor.SceneTemplateModule.dll_17051725351395173998.movedfrom
Library/Bee/artifacts/movedfrom/UnityEditor.UIBuilderModule.dll_17321035945073333887.movedfrom
Library/Bee/artifacts/movedfrom/UnityEditor.UIElementsModule.dll_7259778919580703463.movedfrom
Library/Bee/artifacts/movedfrom/UnityEditor.UIElementsSamplesModule.dll_13601299881399636470.movedfrom
Library/Bee/artifacts/movedfrom/UnityEditor.UIServiceModule.dll_2977653198368908953.movedfrom
Library/Bee/artifacts/movedfrom/UnityEditor.UnityConnectModule.dll_5605865421050113473.movedfrom
Library/Bee/artifacts/movedfrom/UnityEngine.AccessibilityModule.dll_2254422647031254539.movedfrom
Library/Bee/artifacts/movedfrom/UnityEngine.AIModule.dll_10696460886863742079.movedfrom
Library/Bee/artifacts/movedfrom/UnityEngine.AndroidJNIModule.dll_16359557960845330877.movedfrom
Library/Bee/artifacts/movedfrom/UnityEngine.AnimationModule.dll_7664420096269529585.movedfrom
Library/Bee/artifacts/movedfrom/UnityEngine.ARModule.dll_5612676475753653064.movedfrom
Library/Bee/artifacts/movedfrom/UnityEngine.AssetBundleModule.dll_3833008699377246527.movedfrom
Library/Bee/artifacts/movedfrom/UnityEngine.AudioModule.dll_16994455105142566563.movedfrom
Library/Bee/artifacts/movedfrom/UnityEngine.ClothModule.dll_5962990050369441159.movedfrom
Library/Bee/artifacts/movedfrom/UnityEngine.ClusterInputModule.dll_14801218696267055239.movedfrom
Library/Bee/artifacts/movedfrom/UnityEngine.ClusterRendererModule.dll_3896809980047475882.movedfrom
Library/Bee/artifacts/movedfrom/UnityEngine.CoreModule.dll_1625012355189269686.movedfrom
Library/Bee/artifacts/movedfrom/UnityEngine.CrashReportingModule.dll_6703094281414837774.movedfrom
Library/Bee/artifacts/movedfrom/UnityEngine.DirectorModule.dll_6300177695344701523.movedfrom
Library/Bee/artifacts/movedfrom/UnityEngine.dll_15482457871096997631.movedfrom
Library/Bee/artifacts/movedfrom/UnityEngine.DSPGraphModule.dll_6683372244166312308.movedfrom
Library/Bee/artifacts/movedfrom/UnityEngine.GameCenterModule.dll_960987888791222958.movedfrom
Library/Bee/artifacts/movedfrom/UnityEngine.GIModule.dll_3219439928317209753.movedfrom
Library/Bee/artifacts/movedfrom/UnityEngine.GridModule.dll_17581578019364010669.movedfrom
Library/Bee/artifacts/movedfrom/UnityEngine.HotReloadModule.dll_16980324857847074163.movedfrom
Library/Bee/artifacts/movedfrom/UnityEngine.ImageConversionModule.dll_11675086946032549022.movedfrom
Library/Bee/artifacts/movedfrom/UnityEngine.IMGUIModule.dll_2609851684105110148.movedfrom
Library/Bee/artifacts/movedfrom/UnityEngine.InputLegacyModule.dll_14300811426482001712.movedfrom
Library/Bee/artifacts/movedfrom/UnityEngine.InputModule.dll_5930737756288373575.movedfrom
Library/Bee/artifacts/movedfrom/UnityEngine.JSONSerializeModule.dll_9178576489914838677.movedfrom
Library/Bee/artifacts/movedfrom/UnityEngine.LocalizationModule.dll_843660007216657280.movedfrom
Library/Bee/artifacts/movedfrom/UnityEngine.ParticleSystemModule.dll_12689021728756634012.movedfrom
Library/Bee/artifacts/movedfrom/UnityEngine.PerformanceReportingModule.dll_2307398528618147701.movedfrom
Library/Bee/artifacts/movedfrom/UnityEngine.Physics2DModule.dll_13187504431081433478.movedfrom
Library/Bee/artifacts/movedfrom/UnityEngine.PhysicsModule.dll_5643582417160297428.movedfrom
Library/Bee/artifacts/movedfrom/UnityEngine.ProfilerModule.dll_9922823552274642784.movedfrom
Library/Bee/artifacts/movedfrom/UnityEngine.RuntimeInitializeOnLoadManagerInitializerModule.dll_982075853462120015.movedfrom
Library/Bee/artifacts/movedfrom/UnityEngine.ScreenCaptureModule.dll_11045227847568087799.movedfrom
Library/Bee/artifacts/movedfrom/UnityEngine.SharedInternalsModule.dll_2744799446482024430.movedfrom
Library/Bee/artifacts/movedfrom/UnityEngine.SpriteMaskModule.dll_17762918161965518888.movedfrom
Library/Bee/artifacts/movedfrom/UnityEngine.SpriteShapeModule.dll_5661801490683992393.movedfrom
Library/Bee/artifacts/movedfrom/UnityEngine.StreamingModule.dll_2229962175127644463.movedfrom
Library/Bee/artifacts/movedfrom/UnityEngine.SubstanceModule.dll_18130787389518210877.movedfrom
Library/Bee/artifacts/movedfrom/UnityEngine.SubsystemsModule.dll_7003086797505951803.movedfrom
Library/Bee/artifacts/movedfrom/UnityEngine.TerrainModule.dll_7536918826478806210.movedfrom
Library/Bee/artifacts/movedfrom/UnityEngine.TerrainPhysicsModule.dll_12723547300530719785.movedfrom
Library/Bee/artifacts/movedfrom/UnityEngine.TextCoreModule.dll_17305519338923139171.movedfrom
Library/Bee/artifacts/movedfrom/UnityEngine.TextRenderingModule.dll_14017447517005011692.movedfrom
Library/Bee/artifacts/movedfrom/UnityEngine.TilemapModule.dll_546320109039650251.movedfrom
Library/Bee/artifacts/movedfrom/UnityEngine.TLSModule.dll_7258184495187892136.movedfrom
Library/Bee/artifacts/movedfrom/UnityEngine.UIElementsModule.dll_7308875721571447858.movedfrom
Library/Bee/artifacts/movedfrom/UnityEngine.UIElementsNativeModule.dll_1849499943668238153.movedfrom
Library/Bee/artifacts/movedfrom/UnityEngine.UIModule.dll_10368716456654703147.movedfrom
Library/Bee/artifacts/movedfrom/UnityEngine.UmbraModule.dll_7398599420570196502.movedfrom
Library/Bee/artifacts/movedfrom/UnityEngine.UNETModule.dll_12192224998206495279.movedfrom
Library/Bee/artifacts/movedfrom/UnityEngine.UnityAnalyticsModule.dll_14967685676708389784.movedfrom
Library/Bee/artifacts/movedfrom/UnityEngine.UnityConnectModule.dll_4263656456984620652.movedfrom
Library/Bee/artifacts/movedfrom/UnityEngine.UnityCurlModule.dll_11347415925257577438.movedfrom
Library/Bee/artifacts/movedfrom/UnityEngine.UnityTestProtocolModule.dll_8684132090760832844.movedfrom
Library/Bee/artifacts/movedfrom/UnityEngine.UnityWebRequestAssetBundleModule.dll_17866503752091891817.movedfrom
Library/Bee/artifacts/movedfrom/UnityEngine.UnityWebRequestAudioModule.dll_10953276128465648141.movedfrom
Library/Bee/artifacts/movedfrom/UnityEngine.UnityWebRequestModule.dll_12944828992883955485.movedfrom
Library/Bee/artifacts/movedfrom/UnityEngine.UnityWebRequestTextureModule.dll_9986088921012306818.movedfrom
Library/Bee/artifacts/movedfrom/UnityEngine.UnityWebRequestWWWModule.dll_5723303837980960510.movedfrom
Library/Bee/artifacts/movedfrom/UnityEngine.VehiclesModule.dll_14929911857245716462.movedfrom
Library/Bee/artifacts/movedfrom/UnityEngine.VFXModule.dll_16544211578683752725.movedfrom
Library/Bee/artifacts/movedfrom/UnityEngine.VideoModule.dll_1216520879692499528.movedfrom
Library/Bee/artifacts/movedfrom/UnityEngine.VirtualTexturingModule.dll_4483178213947852756.movedfrom
Library/Bee/artifacts/movedfrom/UnityEngine.VRModule.dll_16336591268259893155.movedfrom
Library/Bee/artifacts/movedfrom/UnityEngine.WindModule.dll_10150004467129639711.movedfrom
Library/Bee/artifacts/movedfrom/UnityEngine.XRModule.dll_1546421566271347969.movedfrom
Library/Bee/artifacts/movedfrom/UnityEditor.OSXStandalone.Extensions.dll_7567092645254985456.movedfrom
Library/Bee/artifacts/movedfrom/Unity.Plastic.Antlr3.Runtime.dll_1897452752963021968.movedfrom
Library/Bee/artifacts/movedfrom/Unity.VisualScripting.IonicZip.dll_193353451434007871.movedfrom
Library/Bee/artifacts/movedfrom/Unity.VisualScripting.YamlDotNet.dll_14639087214783363053.movedfrom
Library/Bee/artifacts/movedfrom/Unity.VisualScripting.Antlr3.Runtime.dll_8977260806876497932.movedfrom