{
"instructions_readme": "1) Open Chrome, 2) go to chrome://tracing, 3) click Load, 4) navigate to this file.",
"traceEvents":[
{ "cat":"", "pid":1, "tid":0, "ts":0, "ph":"M", "name":"process_name", "args": { "name":"tundra" } }
,{ "pid":1, "tid":0, "ts":1627863972475649, "dur":1857, "ph":"X", "name": "DriverCheckDagSignatures",  "args": { "durationMS":2, "detail":"" }}
,{ "pid":1, "tid":0, "ts":1627863972477507, "dur":1620, "ph":"X", "name": "DriverInitData",  "args": { "durationMS":2, "detail":"" }}
,{ "pid":1, "tid":0, "ts":1627863972479330, "dur":2715, "ph":"X", "name": "Tundra",  "args": { "durationMS":3, "detail":"RemoveStaleOutputs" }}
,{ "pid":1, "tid":0, "ts":1627863972482050, "dur":2, "ph":"X", "name": "Tundra",  "args": { "durationMS":0, "detail":"PrepareNodes" }}
,{ "pid":1, "tid":0, "ts":1627863972482052, "dur":182, "ph":"X", "name": "Tundra",  "args": { "durationMS":0, "detail":"BuildQueueInit" }}
,{ "pid":1, "tid":0, "ts":1627864160033307, "dur":228, "ph":"X", "name": "JoinBuildThread",  "args": { "durationMS":0, "detail":"" }}
,{ "pid":1, "tid":0, "ts":1627864160033792, "dur":17, "ph":"X", "name": "JoinBuildThread",  "args": { "durationMS":0, "detail":"" }}
,{ "pid":1, "tid":0, "ts":1627864160034048, "dur":16, "ph":"X", "name": "JoinBuildThread",  "args": { "durationMS":0, "detail":"" }}
,{ "pid":1, "tid":0, "ts":1627864160034369, "dur":17, "ph":"X", "name": "JoinBuildThread",  "args": { "durationMS":0, "detail":"" }}
,{ "pid":1, "tid":0, "ts":1627864160034696, "dur":1, "ph":"X", "name": "SharedResourceDestroy",  "args": { "durationMS":0, "detail":"" }}
,{ "pid":1, "tid":0, "ts":1627864160034830, "dur":3355, "ph":"X", "name": "Tundra",  "args": { "durationMS":3, "detail":"Write AllBuiltNodes" }}
,{ "pid":1, "tid":1, "ts":1627863972482371, "dur":17, "ph":"X", "name": "CheckInputSignature",  "args": { "durationMS":0, "detail":"WriteResponseFile artifacts/rsp/13943376753485124974.rsp" }}
,{ "pid":1, "tid":1, "ts":1627863972482576, "dur":358, "ph":"X", "name": "WriteResponseFile",  "args": { "durationMS":0, "detail":"artifacts/rsp/13943376753485124974.rsp" }}
,{ "pid":1, "tid":1, "ts":1627863972482935, "dur":3122, "ph":"X", "name": "CheckInputSignature",  "args": { "durationMS":3, "detail":"Il2Cpp /Users/georgechempalathara/Desktop/Maze Game/Library/Il2cppBuildCache/WebGL/Native/build.bc" }}
,{ "pid":1, "tid":1, "ts":1627863972524627, "dur":187508598, "ph":"X", "name": "Il2Cpp",  "args": { "durationMS":187509, "detail":"/Users/georgechempalathara/Desktop/Maze Game/Library/Il2cppBuildCache/WebGL/Native/build.bc" }}
,{ "pid":1, "tid":1, "ts":1627864160033245, "dur":8, "ph":"X", "name": "CheckInputSignature",  "args": { "durationMS":0, "detail":"all_tundra_nodes" }}
,{ "pid":1, "tid":1, "ts":1627864160033267, "dur":120, "ph":"X", "name": "WaitingForWork", "cname":"thread_state_sleeping",  "args": { "durationMS":0, "detail":"" }}
,{ "pid":1, "tid":1, "ts":1627864160033387, "dur":1, "ph":"X", "name": "Exiting",  "args": { "durationMS":0, "detail":"BuildLoop" }}
,{ "pid":1, "tid":2, "ts":1627863972482376, "dur":187550931, "ph":"X", "name": "WaitingForWork", "cname":"thread_state_sleeping",  "args": { "durationMS":187551, "detail":"" }}
,{ "pid":1, "tid":2, "ts":1627864160033316, "dur":6, "ph":"X", "name": "Exiting",  "args": { "durationMS":0, "detail":"BuildLoop" }}
,{ "pid":1, "tid":3, "ts":1627863972482390, "dur":187550928, "ph":"X", "name": "WaitingForWork", "cname":"thread_state_sleeping",  "args": { "durationMS":187551, "detail":"" }}
,{ "pid":1, "tid":3, "ts":1627864160033331, "dur":7, "ph":"X", "name": "Exiting",  "args": { "durationMS":0, "detail":"BuildLoop" }}
,{ "pid":1, "tid":4, "ts":1627863972482398, "dur":187550998, "ph":"X", "name": "WaitingForWork", "cname":"thread_state_sleeping",  "args": { "durationMS":187551, "detail":"" }}
,{ "pid":1, "tid":4, "ts":1627864160033404, "dur":8, "ph":"X", "name": "Exiting",  "args": { "durationMS":0, "detail":"BuildLoop" }}

]
}
