Library/Bee/artifacts/movedfrom/Unity.2D.Animation.Runtime.ref.dll_8875443624148911867.movedfrom
Library/Bee/artifacts/movedfrom/Unity.2D.Animation.Triangle.Runtime.ref.dll_7451330676191868149.movedfrom
Library/Bee/artifacts/movedfrom/Unity.2D.Common.Runtime.ref.dll_2562745571811277678.movedfrom
Library/Bee/artifacts/movedfrom/Unity.2D.IK.Runtime.ref.dll_9739281435666989829.movedfrom
Library/Bee/artifacts/movedfrom/Unity.2D.PixelPerfect.ref.dll_13011157685356636464.movedfrom
Library/Bee/artifacts/movedfrom/Unity.2D.SpriteShape.Runtime.ref.dll_14972603388625876531.movedfrom
Library/Bee/artifacts/movedfrom/Unity.2D.Tilemap.Extras.ref.dll_16372090681618324732.movedfrom
Library/Bee/artifacts/movedfrom/Unity.InternalAPIEngineBridge.001.ref.dll_12569522378066840296.movedfrom
Library/Bee/artifacts/movedfrom/Unity.Mathematics.ref.dll_5511664135741050611.movedfrom
Library/Bee/artifacts/movedfrom/Unity.TextMeshPro.ref.dll_16731342616176654976.movedfrom
Library/Bee/artifacts/movedfrom/Unity.Timeline.ref.dll_13215802259826941018.movedfrom
Library/Bee/artifacts/movedfrom/Unity.VisualScripting.Core.ref.dll_16952242461172937215.movedfrom
Library/Bee/artifacts/movedfrom/Unity.VisualScripting.Flow.ref.dll_3626337825937106606.movedfrom
Library/Bee/artifacts/movedfrom/Unity.VisualScripting.State.ref.dll_17294269984533746983.movedfrom
Library/Bee/artifacts/movedfrom/UnityEngine.UI.ref.dll_6794175345661852203.movedfrom
Library/Bee/artifacts/movedfrom/UnityEngine.AccessibilityModule.dll_4170423412505746481.movedfrom
Library/Bee/artifacts/movedfrom/UnityEngine.AIModule.dll_1216037697421188473.movedfrom
Library/Bee/artifacts/movedfrom/UnityEngine.AndroidJNIModule.dll_7486566848639705015.movedfrom
Library/Bee/artifacts/movedfrom/UnityEngine.AnimationModule.dll_6804939078861948567.movedfrom
Library/Bee/artifacts/movedfrom/UnityEngine.AssetBundleModule.dll_14209774005413439141.movedfrom
Library/Bee/artifacts/movedfrom/UnityEngine.AudioModule.dll_5118303224875248073.movedfrom
Library/Bee/artifacts/movedfrom/UnityEngine.ClothModule.dll_12533582243811674285.movedfrom
Library/Bee/artifacts/movedfrom/UnityEngine.CoreModule.dll_14405210342591840496.movedfrom
Library/Bee/artifacts/movedfrom/UnityEngine.CrashReportingModule.dll_7794115070812539528.movedfrom
Library/Bee/artifacts/movedfrom/UnityEngine.DirectorModule.dll_15941975202391083789.movedfrom
Library/Bee/artifacts/movedfrom/UnityEngine.dll_12314484855147500965.movedfrom
Library/Bee/artifacts/movedfrom/UnityEngine.DSPGraphModule.dll_16325169751212694574.movedfrom
Library/Bee/artifacts/movedfrom/UnityEngine.GameCenterModule.dll_10534740850295148712.movedfrom
Library/Bee/artifacts/movedfrom/UnityEngine.GIModule.dll_12185760812584207763.movedfrom
Library/Bee/artifacts/movedfrom/UnityEngine.GridModule.dll_11915031933057029863.movedfrom
Library/Bee/artifacts/movedfrom/UnityEngine.HotReloadModule.dll_16120843840439493145.movedfrom
Library/Bee/artifacts/movedfrom/UnityEngine.ImageConversionModule.dll_10666821071169891204.movedfrom
Library/Bee/artifacts/movedfrom/UnityEngine.IMGUIModule.dll_9180443877547343274.movedfrom
Library/Bee/artifacts/movedfrom/UnityEngine.InputLegacyModule.dll_6230832658808642710.movedfrom
Library/Bee/artifacts/movedfrom/UnityEngine.InputModule.dll_12501329949730606701.movedfrom
Library/Bee/artifacts/movedfrom/UnityEngine.JSONSerializeModule.dll_11094577255389330619.movedfrom
Library/Bee/artifacts/movedfrom/UnityEngine.LocalizationModule.dll_2857818959701945530.movedfrom
Library/Bee/artifacts/movedfrom/UnityEngine.ParticleSystemModule.dll_13780042518154335766.movedfrom
Library/Bee/artifacts/movedfrom/UnityEngine.PerformanceReportingModule.dll_7083896238817199535.movedfrom
Library/Bee/artifacts/movedfrom/UnityEngine.Physics2DModule.dll_12328023413673852460.movedfrom
Library/Bee/artifacts/movedfrom/UnityEngine.PhysicsModule.dll_2905322943409854394.movedfrom
Library/Bee/artifacts/movedfrom/UnityEngine.ProfilerModule.dll_1117876985611473434.movedfrom
Library/Bee/artifacts/movedfrom/UnityEngine.RuntimeInitializeOnLoadManagerInitializerModule.dll_612208272469804789.movedfrom
Library/Bee/artifacts/movedfrom/UnityEngine.ScreenCaptureModule.dll_12961228613042579741.movedfrom
Library/Bee/artifacts/movedfrom/UnityEngine.SharedInternalsModule.dll_1736533571619366612.movedfrom
Library/Bee/artifacts/movedfrom/UnityEngine.SpriteMaskModule.dll_8889927049759893026.movedfrom
Library/Bee/artifacts/movedfrom/UnityEngine.SpriteShapeModule.dll_16038566796720185007.movedfrom
Library/Bee/artifacts/movedfrom/UnityEngine.StreamingModule.dll_1370481157720063445.movedfrom
Library/Bee/artifacts/movedfrom/UnityEngine.SubstanceModule.dll_17271306372110629859.movedfrom
Library/Bee/artifacts/movedfrom/UnityEngine.SubsystemsModule.dll_16576839759009877557.movedfrom
Library/Bee/artifacts/movedfrom/UnityEngine.TerrainModule.dll_4798659352728363176.movedfrom
Library/Bee/artifacts/movedfrom/UnityEngine.TerrainPhysicsModule.dll_13814568089928421539.movedfrom
Library/Bee/artifacts/movedfrom/UnityEngine.TextCoreModule.dll_8500572772259969821.movedfrom
Library/Bee/artifacts/movedfrom/UnityEngine.TextRenderingModule.dll_15933448282479503634.movedfrom
Library/Bee/artifacts/movedfrom/UnityEngine.TilemapModule.dll_16254804708998758833.movedfrom
Library/Bee/artifacts/movedfrom/UnityEngine.TLSModule.dll_2907335054728063502.movedfrom
Library/Bee/artifacts/movedfrom/UnityEngine.UIElementsModule.dll_16882628683075373612.movedfrom
Library/Bee/artifacts/movedfrom/UnityEngine.UIElementsNativeModule.dll_658569965201637123.movedfrom
Library/Bee/artifacts/movedfrom/UnityEngine.UIModule.dll_888293267212149541.movedfrom
Library/Bee/artifacts/movedfrom/UnityEngine.UmbraModule.dll_13969191614012429628.movedfrom
Library/Bee/artifacts/movedfrom/UnityEngine.UNETModule.dll_6525678911899514473.movedfrom
Library/Bee/artifacts/movedfrom/UnityEngine.UnityAnalyticsModule.dll_16058706466106091538.movedfrom
Library/Bee/artifacts/movedfrom/UnityEngine.UnityConnectModule.dll_6277815409469908902.movedfrom
Library/Bee/artifacts/movedfrom/UnityEngine.UnityCurlModule.dll_10487934907849996420.movedfrom
Library/Bee/artifacts/movedfrom/UnityEngine.UnityTestProtocolModule.dll_14672552610042334962.movedfrom
Library/Bee/artifacts/movedfrom/UnityEngine.UnityWebRequestAssetBundleModule.dll_13590426128461891683.movedfrom
Library/Bee/artifacts/movedfrom/UnityEngine.UnityWebRequestAudioModule.dll_15729773838664699975.movedfrom
Library/Bee/artifacts/movedfrom/UnityEngine.UnityWebRequestModule.dll_11936563118021297667.movedfrom
Library/Bee/artifacts/movedfrom/UnityEngine.UnityWebRequestTextureModule.dll_7530003872404538620.movedfrom
Library/Bee/artifacts/movedfrom/UnityEngine.UnityWebRequestWWWModule.dll_13156074455310940664.movedfrom
Library/Bee/artifacts/movedfrom/UnityEngine.VehiclesModule.dll_6124965290582547112.movedfrom
Library/Bee/artifacts/movedfrom/UnityEngine.VFXModule.dll_12193362138223924091.movedfrom
Library/Bee/artifacts/movedfrom/UnityEngine.VideoModule.dll_7787113073134732654.movedfrom
Library/Bee/artifacts/movedfrom/UnityEngine.VRModule.dll_6856168078817339549.movedfrom
Library/Bee/artifacts/movedfrom/UnityEngine.WebGLModule.dll_16605988681437870988.movedfrom
Library/Bee/artifacts/movedfrom/UnityEngine.WindModule.dll_4483458380822658905.movedfrom
Library/Bee/artifacts/movedfrom/UnityEngine.XRModule.dll_10512742450538345979.movedfrom
Library/Bee/artifacts/movedfrom/Unity.VisualScripting.Antlr3.Runtime.dll_8977260806876497932.movedfrom